-------------------------------------------------------------------------------
Test set: es.kazbeel.geckobugtracker.web.controller.IssueDetailsControllerTest
-------------------------------------------------------------------------------
Tests run: 23, Failures: 0, Errors: 0, Skipped: 0, Time elapsed: 0.218 sec
